(kicad_symbol_lib (version 20220914) (generator kicad_symbol_editor)
  (symbol "DS1093-01" (pin_names (offset 1.016)) (in_bom yes) (on_board yes)
    (property "Reference" "J" (at -5.08 10.922 0)
      (effects (font (size 1.27 1.27)) (justify left bottom))
    )
    (property "Value" "DS1093-01" (at -5.08 -15.24 0)
      (effects (font (size 1.27 1.27)) (justify left bottom))
    )
    (property "Footprint" "Orange-Pi-radio:DS1093-01" (at 0 0 0)
      (effects (font (size 1.27 1.27)) (justify bottom) hide)
    )
    (property "Datasheet" "" (at 0 0 0)
      (effects (font (size 1.27 1.27)) hide)
    )
    (symbol "DS1093-01_0_0"
      (rectangle (start -5.08 -12.7) (end 5.08 10.16)
        (stroke (width 0.254) (type default))
        (fill (type background))
      )
      (pin passive line (at -10.16 7.62 0) (length 5.08)
        (name "1" (effects (font (size 1.016 1.016))))
        (number "1" (effects (font (size 1.016 1.016))))
      )
      (pin passive line (at -10.16 5.08 0) (length 5.08)
        (name "2" (effects (font (size 1.016 1.016))))
        (number "2" (effects (font (size 1.016 1.016))))
      )
      (pin passive line (at -10.16 2.54 0) (length 5.08)
        (name "3" (effects (font (size 1.016 1.016))))
        (number "3" (effects (font (size 1.016 1.016))))
      )
      (pin passive line (at -10.16 0 0) (length 5.08)
        (name "4" (effects (font (size 1.016 1.016))))
        (number "4" (effects (font (size 1.016 1.016))))
      )
      (pin passive line (at -10.16 -2.54 0) (length 5.08)
        (name "5" (effects (font (size 1.016 1.016))))
        (number "5" (effects (font (size 1.016 1.016))))
      )
      (pin passive line (at -10.16 -5.08 0) (length 5.08)
        (name "6" (effects (font (size 1.016 1.016))))
        (number "6" (effects (font (size 1.016 1.016))))
      )
      (pin passive line (at -10.16 -10.16 0) (length 5.08)
        (name "SHIELD" (effects (font (size 1.016 1.016))))
        (number "S1" (effects (font (size 1.016 1.016))))
      )
    )
    (symbol "DS1093-01_1_0"
      (pin passive line (at -10.16 -10.16 0) (length 5.08) hide
        (name "SHIELD" (effects (font (size 1.016 1.016))))
        (number "S2" (effects (font (size 1.016 1.016))))
      )
      (pin passive line (at -10.16 -10.16 0) (length 5.08) hide
        (name "SHIELD" (effects (font (size 1.016 1.016))))
        (number "S3" (effects (font (size 1.016 1.016))))
      )
    )
  )
  (symbol "OPi0_schield" (in_bom yes) (on_board yes)
    (property "Reference" "SCH" (at 0 -11.43 0)
      (effects (font (size 1.27 1.27)))
    )
    (property "Value" "" (at -6.35 -7.62 0)
      (effects (font (size 1.27 1.27)))
    )
    (property "Footprint" "Orange-Pi-radio:OPi0_schield" (at -6.35 -7.62 0)
      (effects (font (size 1.27 1.27)) hide)
    )
    (property "Datasheet" "" (at -6.35 -7.62 0)
      (effects (font (size 1.27 1.27)) hide)
    )
    (symbol "OPi0_schield_1_1"
      (rectangle (start -8.89 10.16) (end 8.89 -9.525)
        (stroke (width 0) (type default))
        (fill (type background))
      )
      (circle (center -4.445 -4.445) (radius 0.635)
        (stroke (width 0) (type default))
        (fill (type outline))
      )
      (circle (center -4.445 4.445) (radius 0.635)
        (stroke (width 0) (type default))
        (fill (type outline))
      )
      (polyline
        (pts
          (xy -5.715 5.715)
          (xy 5.715 5.715)
          (xy 5.715 -5.715)
          (xy -5.715 -5.715)
          (xy -5.715 -3.175)
          (xy -1.905 -3.175)
          (xy -1.905 1.905)
          (xy -3.175 1.905)
          (xy -3.175 3.175)
          (xy -5.715 3.175)
          (xy -5.715 5.715)
        )
        (stroke (width 0) (type default))
        (fill (type none))
      )
      (circle (center 4.445 -4.445) (radius 0.635)
        (stroke (width 0) (type default))
        (fill (type outline))
      )
      (circle (center 4.445 4.445) (radius 0.635)
        (stroke (width 0) (type default))
        (fill (type outline))
      )
      (text "OPi 0 Schield\n" (at 0 7.62 0)
        (effects (font (size 1.27 1.27)))
      )
      (pin input line (at -12.7 -7.62 0) (length 3.81)
        (name "MH" (effects (font (size 1.27 1.27))))
        (number "MH" (effects (font (size 1.27 1.27))))
      )
    )
  )
)
